{
  "images" : [
    {
      "idiom" : "universal",
      "scale" : "1x"
    },
    {
      "idiom" : "universal",
      "scale" : "2x",
      "filename" : "home_icon_tab.png"
    },
    {
      "idiom" : "universal",
      "scale" : "3x"
    },
    {
      "idiom" : "ipad",
      "scale" : "1x",
      "filename" : "home_icon_tab_low.png"
    },
    {
      "idiom" : "ipad",
      "scale" : "2x",
      "filename" : "home_icon_tab-1.png"
    }
  ],
  "info" : {
    "version" : 1,
    "author" : "xcode"
  }
}